dump.vcd
$date
	Mon Dec 30 04:29:36 2024
$end
$version
	QuestaSim Version 2024.3_1
$end
$timescale
	1ns
$end

$scope module tb_top $end
$var parameter 32 ! CLOCK_PERIOD $end
$var parameter 32 " RESET_PERIOD $end
$var reg 1 # clk $end
$var reg 1 $ rst_n $end

$scope module i_fifo_dut $end
$var wire 1 % clk $end
$var wire 1 & data_in [7] $end
$var wire 1 ' data_in [6] $end
$var wire 1 ( data_in [5] $end
$var wire 1 ) data_in [4] $end
$var wire 1 * data_in [3] $end
$var wire 1 + data_in [2] $end
$var wire 1 , data_in [1] $end
$var wire 1 - data_in [0] $end
$var wire 1 . empty $end
$var wire 1 / full $end
$var wire 1 0 rd $end
$var wire 1 1 rst $end
$var wire 1 2 wr $end
$var reg 8 3 data_out [7:0] $end
$var reg 4 4 fifo_cnt [3:0] $end
$var reg 3 5 rd_ptr [2:0] $end
$var reg 3 6 wr_ptr [2:0] $end
$upscope $end

$scope module intf $end
$var wire 1 7 clk $end
$var wire 1 8 rst_n $end
$var reg 8 9 data_in [7:0] $end
$var reg 8 : data_out [7:0] $end
$var reg 1 ; empty $end
$var reg 4 < fifo_cnt [3:0] $end
$var reg 1 = full $end
$var reg 1 > rd $end
$var reg 1 ? wr $end
$upscope $end

$scope task clk_generation $end
$upscope $end

$scope task rst_generation $end
$upscope $end
$upscope $end

$scope begin questa_uvm_pkg $end
$upscope $end

$scope begin uvm_pkg_sv_unit $end
$upscope $end

$scope begin fifo_pkg $end
$upscope $end

$scope begin uvm_pkg $end
$var parameter 32 @ UVM_ABSTRACT $end
$var parameter 32 A UVM_ALL_ON $end
$var parameter 32 B UVM_CHECK_FIELDS $end
$var parameter 32 C UVM_COMPARE $end
$var parameter 32 D UVM_COPY $end
$var parameter 32 E UVM_DEFAULT $end
$var parameter 32 F UVM_END_DATA_EXTRA $end
$var parameter 32 G UVM_END_FUNCS $end
$var parameter 32 H UVM_FLAGS $end
$var parameter 32 I UVM_FLAGS_OFF $end
$var parameter 32 J UVM_FLAGS_ON $end
$var parameter 32 K UVM_HDL_MAX_WIDTH $end
$var parameter 32 L UVM_LARGE_STRING $end
$var parameter 32 M UVM_LINE_WIDTH $end
$var parameter 32 N UVM_MACRO_EXTRAS $end
$var parameter 32 O UVM_MACRO_NUMFLAGS $end
$var parameter 32 P UVM_NOCOMPARE $end
$var parameter 32 Q UVM_NOCOPY $end
$var parameter 32 R UVM_NODEFPRINT $end
$var parameter 32 S UVM_NOPACK $end
$var parameter 32 T UVM_NOPRINT $end
$var parameter 32 U UVM_NORECORD $end
$var parameter 32 V UVM_NUM_LINES $end
$var parameter 32 W UVM_PACK $end
$var parameter 32 X UVM_PHYSICAL $end
$var parameter 32 Y UVM_PRINT $end
$var parameter 32 Z UVM_RADIX $end
$var parameter 32 [ UVM_READONLY $end
$var parameter 32 \ UVM_RECORD $end
$var parameter 32 ] UVM_SET $end
$var parameter 32 ^ UVM_SETINT $end
$var parameter 32 _ UVM_SETOBJ $end
$var parameter 32 ` UVM_SETSTR $end
$var parameter 32 a UVM_SMALL_STRING $end
$var parameter 32 b UVM_START_FUNCS $end
$var parameter 32 c UVM_STDOUT $end
$var parameter 32 d UVM_STREAMBITS $end
$var parameter 32 e UVM_STR_CRC_POLYNOMIAL $end
$var parameter 32 f UVM_UNPACK $end
$var integer 32 g UVM_UNBOUNDED_CONNECTIONS $end
$var integer 32 h uvm_global_random_seed $end
$var reg 1 i uvm_start_uvm_declarations $end

$scope function global_stop_request $end
$upscope $end

$scope function m__uvm_report_dpi $end
$var integer 32 j line $end
$var integer 32 k severity $end
$var integer 32 l verbosity $end
$upscope $end

$scope function m_uvm_string_queue_join $end
$upscope $end

$scope function set_config_int $end
$var reg 4096 m value [4095:0] $end
$upscope $end

$scope function set_config_object $end
$var reg 1 n clone $end
$upscope $end

$scope function set_config_string $end
$upscope $end

$scope function set_global_stop_timeout $end
$var time 64 o timeout $end
$upscope $end

$scope function set_global_timeout $end
$var time 64 p timeout $end
$var reg 1 q overridable $end
$upscope $end

$scope function uvm_bits_to_string $end
$var reg 115200 r str [115199:0] $end
$upscope $end

$scope function uvm_bitstream_to_string $end
$var reg 4096 s value [4095:0] $end
$var integer 32 t size $end
$var integer 32 u radix $end
$upscope $end

$scope function uvm_create_random_seed $end
$var integer 32 v uvm_create_random_seed $end
$upscope $end

$scope function uvm_dpi_get_next_arg $end
$var integer 32 w init $end
$upscope $end

$scope function uvm_dpi_get_next_arg_c $end
$var integer 32 x init $end
$upscope $end

$scope function uvm_dpi_get_tool_name $end
$upscope $end

$scope function uvm_dpi_get_tool_name_c $end
$upscope $end

$scope function uvm_dpi_get_tool_version $end
$upscope $end

$scope function uvm_dpi_get_tool_version_c $end
$upscope $end

$scope function uvm_dpi_regcomp $end
$upscope $end

$scope function uvm_dpi_regexec $end
$var integer 32 y uvm_dpi_regexec $end
$upscope $end

$scope function uvm_dpi_regfree $end
$upscope $end

$scope function uvm_dump_re_cache $end
$upscope $end

$scope function uvm_get_array_index_int $end
$var integer 32 z i $end
$var integer 32 { uvm_get_array_index_int $end
$var reg 1 | is_wildcard $end
$upscope $end

$scope function uvm_get_array_index_string $end
$var integer 32 } i $end
$var reg 1 ~ is_wildcard $end
$upscope $end

$scope function uvm_get_report_object $end
$upscope $end

$scope function uvm_glob_to_re $end
$upscope $end

$scope function uvm_has_wildcard $end
$upscope $end

$scope function uvm_hdl_check_path $end
$var integer 32 !! uvm_hdl_check_path $end
$upscope $end

$scope function uvm_hdl_concat2string $end
$upscope $end

$scope function uvm_hdl_deposit $end
$var reg 1024 "! value [1023:0] $end
$var integer 32 #! uvm_hdl_deposit $end
$upscope $end

$scope function uvm_hdl_force $end
$var reg 1024 $! value [1023:0] $end
$var integer 32 %! uvm_hdl_force $end
$upscope $end

$scope function uvm_hdl_read $end
$var reg 1024 &! value [1023:0] $end
$var integer 32 '! uvm_hdl_read $end
$upscope $end

$scope function uvm_hdl_release $end
$var integer 32 (! uvm_hdl_release $end
$upscope $end

$scope function uvm_hdl_release_and_read $end
$var reg 1024 )! value [1023:0] $end
$var integer 32 *! uvm_hdl_release_and_read $end
$upscope $end

$scope function uvm_instance_scope $end
$var integer 32 +! pos $end
$var integer 8 ,! c $end
$upscope $end

$scope function uvm_integral_to_string $end
$var reg 64 -! value [63:0] $end
$var integer 32 .! size $end
$var integer 32 /! radix $end
$upscope $end

$scope function uvm_is_array $end
$var reg 1 0! uvm_is_array $end
$upscope $end

$scope function uvm_is_match $end
$var reg 1 1! uvm_is_match $end
$upscope $end

$scope function uvm_leaf_scope $end
$var integer 32 2! bmatches $end
$var integer 32 3! pos $end
$var integer 8 4! bracket_match $end
$var integer 8 5! scope_separator $end
$upscope $end

$scope function uvm_object_value_str $end
$upscope $end

$scope function uvm_oneway_hash $end
$var integer 32 6! seed $end
$var integer 32 7! uvm_oneway_hash $end
$var reg 32 8! crc1 [31:0] $end
$var reg 8 9! current_byte [7:0] $end
$var reg 1 :! msb $end
$upscope $end

$scope function uvm_process_report_message $end
$upscope $end

$scope function uvm_radix_to_string $end
$var integer 32 ;! radix $end
$upscope $end

$scope function uvm_re_match $end
$var integer 32 <! uvm_re_match $end
$upscope $end

$scope function uvm_report $end
$var integer 32 =! line $end
$var integer 32 >! verbosity $end
$var reg 2 ?! severity [1:0] $end
$var reg 1 @! report_enabled_checked $end
$upscope $end

$scope function uvm_report_enabled $end
$var integer 32 A! uvm_report_enabled $end
$var integer 32 B! verbosity $end
$var reg 2 C! severity [1:0] $end
$upscope $end

$scope function uvm_report_error $end
$var integer 32 D! line $end
$var integer 32 E! verbosity $end
$var reg 1 F! report_enabled_checked $end
$upscope $end

$scope function uvm_report_fatal $end
$var integer 32 G! line $end
$var integer 32 H! verbosity $end
$var reg 1 I! report_enabled_checked $end
$upscope $end

$scope function uvm_report_info $end
$var integer 32 J! line $end
$var integer 32 K! verbosity $end
$var reg 1 L! report_enabled_checked $end
$upscope $end

$scope function uvm_report_warning $end
$var integer 32 M! line $end
$var integer 32 N! verbosity $end
$var reg 1 O! report_enabled_checked $end
$upscope $end

$scope function uvm_revision_string $end
$upscope $end

$scope function uvm_split_string $end
$upscope $end

$scope function uvm_string_to_action $end
$upscope $end

$scope function uvm_string_to_bits $end
$var reg 115200 P! uvm_string_to_bits [115199:0] $end
$upscope $end

$scope function uvm_string_to_severity $end
$var reg 2 Q! sev [1:0] $end
$var reg 1 R! uvm_string_to_severity $end
$upscope $end

$scope function uvm_vector_to_string $end
$var reg 4096 S! value [4095:0] $end
$var integer 32 T! size $end
$var integer 32 U! radix $end
$upscope $end

$scope task run_test $end
$upscope $end

$scope task uvm_hdl_force_time $end
$var reg 1024 V! value [1023:0] $end
$var time 64 W! force_time $end
$upscope $end

$scope task uvm_wait_for_nba_region $end
$var integer 32 X! nba $end
$var integer 32 Y! next_nba $end
$upscope $end
$upscope $end

$scope begin std $end
$upscope $end
$enddefinitions $end
#0
$dumpvars
x0
x2
01
0%
x-
x,
x+
x*
x)
x(
x'
x&
08
07
x.
x/
b101 !
b100 "
0#
0$
b100000000000000 @
b101010101 A
b100000000000000011 B
b100 C
b1 D
b10101010101 E
b100000000000000100 F
b100000000000001000 G
b100000000000000001 H
b0 I
b101010101 J
b10000000000 K
b11100000111111111 L
b1111000 M
b100000000000000000 N
b10001 O
b1000 P
b10 Q
b10000000000000000 R
b1000000000 S
b100000 T
b10000000 U
b1111000 V
b100000000 W
b10000000000000 X
b10000 Y
b1111000000000000000000000000 Z
b1000000000000000 [
b1000000 \
b100000000000000110 ]
b100000000000000110 ^
b100000000000000111 _
b100000000000001000 `
b1110111111 a
b100000000000000101 b
b1 c
b1000000000000 d
b100110000010001110110110110 e
b100000000000000010 f
b11111111111111111111111111111111 g
b1100101110011111100110100100110 h
1i
b0 j
b0 k
b0 l
bx m
0n
bx o
bx p
0q
bx r
bx s
b0 t
b0 u
b1100110010001100101100110100000 v
b0 w
b0 x
b0 y
b0 z
b0 {
0|
b0 }
0~
b0 !!
bx "!
b0 #!
bx $!
b0 %!
bx V!
bx W!
bx &!
b0 '!
b0 (!
bx )!
b0 *!
b111 +!
b101110 ,!
b1 -!
b100000 .!
b10000000000000000000000000 /!
00!
01!
b11111111111111111111111111111111 2!
b11010 3!
b0 4!
b101110 5!
b1100101110011111100110100100110 6!
b101010100011011010001110110010 7!
b1110011001010010100001000111011 8!
b1101101 9!
1:!
b0 ;!
b0 <!
b0 =!
b0 >!
b0 ?!
0@!
b0 A!
b111110100 B!
b0 C!
b0 D!
b0 E!
0F!
b0 G!
b0 H!
0I!
b100010110 J!
b11001000 K!
1L!
b0 M!
b0 N!
0O!
bx P!
b0 Q!
0R!
bx S!
b0 T!
b0 U!
b100011 X!
b100011 Y!
bx 3
bx 4
bx 5
bx 6
bx 9
bx :
x;
bx <
x=
x>
x?
$end
#2
1#
17
1%
b0 4
b0 6
b0 5
b0 <
0/
1.
1;
0=
#4
1$
0#
18
11
07
0%
b100100 Y!
b100100 X!
b11111111111111111111111111111111 2!
b110 3!
b10 -!
b100000 .!
b10000000000000000000000000 /!
b11111111111111111111111111111111 2!
b110 3!
b10 -!
b100000 .!
b10000000000000000000000000 /!
b101010100011011010001110110011 v
1?
0>
b10000010 9
12
00
0-
1,
0+
0*
0)
0(
0'
1&
#6
1#
17
1%
b100101 Y!
b11111111111111111111111111111111 2!
b110 3!
b0 -!
b1000 .!
b111000000000000000000000000 /!
b1 6
b1 4
b100101 X!
b1 <
0.
0;
b11111111111111111111111111111111 2!
b110 3!
b10 -!
b100000 .!
b10000000000000000000000000 /!
b11111111111111111111111111111111 2!
b110 3!
b10 -!
b100000 .!
b10000000000000000000000000 /!
b10011110001111010011110111000010 7!
b1100011100011111001001011000111 8!
b1110001 9!
1:!
b10011110001111010011110111000010 v
b10100100111011110010000001001111 7!
b11010110101011001110000011000000 8!
b1101101 9!
0:!
b10100100111011110010000001001111 v
0?
1>
b0 9
02
10
0,
0&
#8
0#
07
0%
#10
1#
17
1%
b100110 Y!
b0 4
b10000010 3
b1 5
b100110 X!
b10000010 :
b0 <
1.
1;
b11111111111111111111111111111111 2!
b110 3!
b10 -!
b100000 .!
b10000000000000000000000000 /!
b11111111111111111111111111111111 2!
b110 3!
b10 -!
b100000 .!
b10000000000000000000000000 /!
b10100100111011110010000001010000 v
1?
0>
b11101001 9
12
00
1-
1*
1(
1'
1&
#12
0#
07
0%
#14
1#
17
1%
b100111 Y!
b11111111111111111111111111111111 2!
b110 3!
b0 -!
b1000 .!
b111000000000000000000000000 /!
b10 6
b1 4
b100111 X!
b1 <
0.
0;
b11111111111111111111111111111111 2!
b110 3!
b10 -!
b100000 .!
b10000000000000000000000000 /!
b11111111111111111111111111111111 2!
b110 3!
b10 -!
b100000 .!
b10000000000000000000000000 /!
b10100100111011110010000001010010 v
b11111111 9
1,
1+
1)
#16
0#
07
0%
#18
1#
17
1%
b101000 Y!
b11111111111111111111111111111111 2!
b110 3!
b0 -!
b1000 .!
b111000000000000000000000000 /!
b10 4
b11 6
b101000 X!
b10 <
b11111111111111111111111111111111 2!
b110 3!
b10 -!
b100000 .!
b10000000000000000000000000 /!
b11111111111111111111111111111111 2!
b110 3!
b10 -!
b100000 .!
b10000000000000000000000000 /!
b10100100111011110010000001010101 v
b11010011 9
0+
0*
0(
#20
0#
07
0%
#22
1#
17
1%
b101001 Y!
b11111111111111111111111111111111 2!
b110 3!
b0 -!
b1000 .!
b111000000000000000000000000 /!
b100 6
b11 4
b101001 X!
b11 <
b11111111111111111111111111111111 2!
b110 3!
b10 -!
b100000 .!
b10000000000000000000000000 /!
b11111111111111111111111111111111 2!
b110 3!
b10 -!
b100000 .!
b10000000000000000000000000 /!
b10100100111011110010000001011001 v
b1000010 9
0-
0)
0&
#24
0#
07
0%
#26
1#
17
1%
b101010 Y!
b11111111111111111111111111111111 2!
b110 3!
b0 -!
b1000 .!
b111000000000000000000000000 /!
b100 4
b101 6
b101010 X!
b100 <
b11111111111111111111111111111111 2!
b110 3!
b10 -!
b100000 .!
b10000000000000000000000000 /!
b11111111111111111111111111111111 2!
b110 3!
b10 -!
b100000 .!
b10000000000000000000000000 /!
b10100100111011110010000001011110 v
b11111110 9
1+
1*
1)
1(
1&
#28
0#
07
0%
#30
1#
17
1%
b101011 Y!
b11111111111111111111111111111111 2!
b110 3!
b0 -!
b1000 .!
b111000000000000000000000000 /!
b110 6
b101 4
b101011 X!
b101 <
b11111111111111111111111111111111 2!
b110 3!
b10 -!
b100000 .!
b10000000000000000000000000 /!
b11111111111111111111111111111111 2!
b110 3!
b10 -!
b100000 .!
b10000000000000000000000000 /!
b10100100111011110010000001100100 v
b1101011 9
1-
0+
0)
0&
#32
0#
07
0%
#34
1#
17
1%
b101100 Y!
b11111111111111111111111111111111 2!
b110 3!
b0 -!
b1000 .!
b111000000000000000000000000 /!
b110 4
b111 6
b101100 X!
b110 <
b11111111111111111111111111111111 2!
b110 3!
b10 -!
b100000 .!
b10000000000000000000000000 /!
b11111111111111111111111111111111 2!
b110 3!
b10 -!
b100000 .!
b10000000000000000000000000 /!
b10100100111011110010000001101011 v
b1111011 9
1)
#36
0#
07
0%
#38
1#
17
1%
b101101 Y!
b11111111111111111111111111111111 2!
b110 3!
b0 -!
b1000 .!
b111000000000000000000000000 /!
b0 6
b111 4
b101101 X!
b111 <
b11111111111111111111111111111111 2!
b110 3!
b10 -!
b100000 .!
b10000000000000000000000000 /!
b11111111111111111111111111111111 2!
b110 3!
b10 -!
b100000 .!
b10000000000000000000000000 /!
b11000011111000001100010111111011 7!
b101010000001111110111110100001 8!
b1110001 9!
1:!
b11000011111000001100010111111011 v
b10100110000111110101100111111111 7!
b100110011100111011000010111111 8!
b1101101 9!
1:!
b10100110000111110101100111111111 v
b11000010 9
0-
0*
0)
0(
1&
#40
0#
07
0%
#42
1#
17
1%
b101110 Y!
b11111111111111111111111111111111 2!
b110 3!
b0 -!
b1000 .!
b111000000000000000000000000 /!
b1000 4
b1 6
b101110 X!
b1000 <
1/
1=
b11111111111111111111111111111111 2!
b110 3!
b10 -!
b100000 .!
b10000000000000000000000000 /!
b11111111111111111111111111111111 2!
b110 3!
b10 -!
b100000 .!
b10000000000000000000000000 /!
b10100110000111110101101000000000 v
0?
1>
b0 9
02
10
0,
0'
0&
#44
0#
07
0%
#46
1#
17
1%
b101111 Y!
b11111111111111111111111111111111 2!
b110 3!
b10000010 -!
b1000 .!
b111000000000000000000000000 /!
b11101001 3
b10 5
b111 4
b101111 X!
b111 <
b11101001 :
0/
0=
b11111111111111111111111111111111 2!
b110 3!
b10 -!
b100000 .!
b10000000000000000000000000 /!
b11111111111111111111111111111111 2!
b110 3!
b10 -!
b100000 .!
b10000000000000000000000000 /!
b10100110000111110101101000000010 v
#48
0#
07
0%
#50
1#
17
1%
b110000 Y!
b11111111111111111111111111111111 2!
b110 3!
b11101001 -!
b1000 .!
b111000000000000000000000000 /!
b110 4
b11 5
b11111111 3
b110000 X!
b11111111 :
b110 <
b11111111111111111111111111111111 2!
b110 3!
b10 -!
b100000 .!
b10000000000000000000000000 /!
b11111111111111111111111111111111 2!
b110 3!
b10 -!
b100000 .!
b10000000000000000000000000 /!
b10100110000111110101101000000101 v
#52
0#
07
0%
#54
1#
17
1%
b110001 Y!
b11111111111111111111111111111111 2!
b110 3!
b11111111 -!
b1000 .!
b111000000000000000000000000 /!
b100 5
b11010011 3
b101 4
b110001 X!
b101 <
b11010011 :
b11111111111111111111111111111111 2!
b110 3!
b10 -!
b100000 .!
b10000000000000000000000000 /!
b11111111111111111111111111111111 2!
b110 3!
b10 -!
b100000 .!
b10000000000000000000000000 /!
b10100110000111110101101000001001 v
#56
0#
07
0%
#58
1#
17
1%
b110010 Y!
b11111111111111111111111111111111 2!
b110 3!
b11010011 -!
b1000 .!
b111000000000000000000000000 /!
b100 4
b101 5
b1000010 3
b110010 X!
b1000010 :
b100 <
b11111111111111111111111111111111 2!
b110 3!
b10 -!
b100000 .!
b10000000000000000000000000 /!
b11111111111111111111111111111111 2!
b110 3!
b10 -!
b100000 .!
b10000000000000000000000000 /!
b10100110000111110101101000001110 v
#60
0#
07
0%
#62
1#
17
1%
b110011 Y!
b11111111111111111111111111111111 2!
b110 3!
b1000010 -!
b1000 .!
b111000000000000000000000000 /!
b110 5
b11111110 3
b11 4
b110011 X!
b11 <
b11111110 :
b11111111111111111111111111111111 2!
b110 3!
b10 -!
b100000 .!
b10000000000000000000000000 /!
b11111111111111111111111111111111 2!
b110 3!
b10 -!
b100000 .!
b10000000000000000000000000 /!
b10100110000111110101101000010100 v
#64
0#
07
0%
#66
1#
17
1%
b110100 Y!
b11111111111111111111111111111111 2!
b110 3!
b11111110 -!
b1000 .!
b111000000000000000000000000 /!
b10 4
b111 5
b1101011 3
b110100 X!
b1101011 :
b10 <
b11111111111111111111111111111111 2!
b110 3!
b10 -!
b100000 .!
b10000000000000000000000000 /!
b11111111111111111111111111111111 2!
b110 3!
b10 -!
b100000 .!
b10000000000000000000000000 /!
b10100110000111110101101000011011 v
#68
0#
07
0%
#70
1#
17
1%
b110101 Y!
b11111111111111111111111111111111 2!
b110 3!
b1101011 -!
b1000 .!
b111000000000000000000000000 /!
b0 5
b1111011 3
b1 4
b110101 X!
b1 <
b1111011 :
b11111111111111111111111111111111 2!
b110 3!
b10 -!
b100000 .!
b10000000000000000000000000 /!
b11111111111111111111111111111111 2!
b110 3!
b10 -!
b100000 .!
b10000000000000000000000000 /!
b1001001111100111011010010100101 7!
b10000000000110001101110000011011 8!
b1110001 9!
1:!
b1001001111100111011010010100101 v
b1101011101110110011101010000010 7!
b10100011100100100001010011111010 8!
b1101101 9!
0:!
b1101011101110110011101010000010 v
#72
0#
07
0%
#74
1#
17
1%
b110110 Y!
b11111111111111111111111111111111 2!
b110 3!
b1111011 -!
b1000 .!
b111000000000000000000000000 /!
b0 4
b1 5
b11000010 3
b110110 X!
b11000010 :
b0 <
1.
1;
b11111111111111111111111111111111 2!
b110 3!
b10 -!
b100000 .!
b10000000000000000000000000 /!
b11111111111111111111111111111111 2!
b110 3!
b10 -!
b100000 .!
b10000000000000000000000000 /!
b1101011101110110011101010000011 v
1?
0>
b11001110 9
12
00
1,
1+
1*
1'
1&
#76
0#
07
0%
#78
1#
17
1%
b110111 Y!
b11111111111111111111111111111111 2!
b110 3!
b0 -!
b1000 .!
b111000000000000000000000000 /!
b10 6
b1 4
b110111 X!
b1 <
0.
0;
b11111111111111111111111111111111 2!
b110 3!
b10 -!
b100000 .!
b10000000000000000000000000 /!
b11111111111111111111111111111111 2!
b110 3!
b10 -!
b100000 .!
b10000000000000000000000000 /!
b1101011101110110011101010000101 v
b11111011 9
1-
0+
1)
1(
#80
0#
07
0%
#82
1#
17
1%
b111000 Y!
b11111111111111111111111111111111 2!
b110 3!
b0 -!
b1000 .!
b111000000000000000000000000 /!
b10 4
b11 6
b111000 X!
b10 <
b11111111111111111111111111111111 2!
b110 3!
b10 -!
b100000 .!
b10000000000000000000000000 /!
b11111111111111111111111111111111 2!
b110 3!
b10 -!
b100000 .!
b10000000000000000000000000 /!
b1101011101110110011101010001000 v
b10101111 9
1+
0)
0'
#84
0#
07
0%
#86
1#
17
1%
b111001 Y!
b11111111111111111111111111111111 2!
b110 3!
b0 -!
b1000 .!
b111000000000000000000000000 /!
b100 6
b11 4
b111001 X!
b11 <
b11111111111111111111111111111111 2!
b110 3!
b10 -!
b100000 .!
b10000000000000000000000000 /!
b11111111111111111111111111111111 2!
b110 3!
b10 -!
b100000 .!
b10000000000000000000000000 /!
b1101011101110110011101010001100 v
b110110 9
0-
0*
1)
0&
#88
0#
07
0%
#90
1#
17
1%
b111010 Y!
b11111111111111111111111111111111 2!
b110 3!
b0 -!
b1000 .!
b111000000000000000000000000 /!
b100 4
b101 6
b111010 X!
b100 <
b11111111111111111111111111111111 2!
b110 3!
b10 -!
b100000 .!
b10000000000000000000000000 /!
b11111111111111111111111111111111 2!
b110 3!
b10 -!
b100000 .!
b10000000000000000000000000 /!
b1101011101110110011101010010001 v
b100110 9
0)
#92
0#
07
0%
#94
1#
17
1%
b111011 Y!
b11111111111111111111111111111111 2!
b110 3!
b0 -!
b1000 .!
b111000000000000000000000000 /!
b110 6
b101 4
b111011 X!
b101 <
b11111111111111111111111111111111 2!
b110 3!
b10 -!
b100000 .!
b10000000000000000000000000 /!
b11111111111111111111111111111111 2!
b110 3!
b10 -!
b100000 .!
b10000000000000000000000000 /!
b1101011101110110011101010010111 v
b10011 9
1-
0+
1)
0(
#96
0#
07
0%
#98
1#
17
1%
b111100 Y!
b11111111111111111111111111111111 2!
b110 3!
b0 -!
b1000 .!
b111000000000000000000000000 /!
b110 4
b111 6
b111100 X!
b110 <
b11111111111111111111111111111111 2!
b110 3!
b10 -!
b100000 .!
b10000000000000000000000000 /!
b11111111111111111111111111111111 2!
b110 3!
b10 -!
b100000 .!
b10000000000000000000000000 /!
b1101011101110110011101010011110 v
b10110101 9
0,
1+
1(
1&
#100
0#
07
0%
#102
1#
17
1%
b111101 Y!
b11111111111111111111111111111111 2!
b110 3!
b0 -!
b1000 .!
b111000000000000000000000000 /!
b0 6
b111 4
b111101 X!
b111 <
b11111111111111111111111111111111 2!
b110 3!
b10 -!
b100000 .!
b10000000000000000000000000 /!
b11111111111111111111111111111111 2!
b110 3!
b10 -!
b100000 .!
b10000000000000000000000000 /!
b1101011101110110011101010100110 v
b11110101 9
1'
#104
0#
07
0%
#106
1#
17
1%
b111110 Y!
b11111111111111111111111111111111 2!
b110 3!
b0 -!
b1000 .!
b111000000000000000000000000 /!
b1000 4
b1 6
b111110 X!
b1000 <
1/
1=
b11111111111111111111111111111111 2!
b110 3!
b10 -!
b100000 .!
b10000000000000000000000000 /!
b11111111111111111111111111111111 2!
b110 3!
b10 -!
b100000 .!
b10000000000000000000000000 /!
b1101011101110110011101010101111 v
b11010111 9
1,
0(
#108
0#
07
0%
#110
1#
17
1%
b111111 Y!
b11111111111111111111111111111111 2!
b110 3!
b0 -!
b1000 .!
b111000000000000000000000000 /!
b111111 X!
b11111111111111111111111111111111 2!
b110 3!
b10 -!
b100000 .!
b10000000000000000000000000 /!
b11111111111111111111111111111111 2!
b110 3!
b10 -!
b100000 .!
b10000000000000000000000000 /!
b1101011101110110011101010111001 v
0?
1>
b0 9
02
10
0-
0,
0+
0)
0'
0&
#112
0#
07
0%
#114
1#
17
1%
b1000000 Y!
b11111111111111111111111111111111 2!
b110 3!
b11000010 -!
b1000 .!
b111000000000000000000000000 /!
b111 4
b10 5
b11001110 3
b1000000 X!
b11001110 :
b111 <
0/
0=
b11111111111111111111111111111111 2!
b110 3!
b10 -!
b100000 .!
b10000000000000000000000000 /!
b11111111111111111111111111111111 2!
b110 3!
b10 -!
b100000 .!
b10000000000000000000000000 /!
b1101011101110110011101011000100 v
#116
0#
07
0%
#118
1#
17
1%
b1000001 Y!
b11111111111111111111111111111111 2!
b110 3!
b11001110 -!
b1000 .!
b111000000000000000000000000 /!
b11 5
b11111011 3
b110 4
b1000001 X!
b110 <
b11111011 :
b11111111111111111111111111111111 2!
b110 3!
b10 -!
b100000 .!
b10000000000000000000000000 /!
b11111111111111111111111111111111 2!
b110 3!
b10 -!
b100000 .!
b10000000000000000000000000 /!
b1101011101110110011101011010000 v
#120
0#
07
0%
#122
1#
17
1%
b1000010 Y!
b11111111111111111111111111111111 2!
b110 3!
b11111011 -!
b1000 .!
b111000000000000000000000000 /!
b101 4
b100 5
b10101111 3
b1000010 X!
b10101111 :
b101 <
b11111111111111111111111111111111 2!
b110 3!
b10 -!
b100000 .!
b10000000000000000000000000 /!
b11111111111111111111111111111111 2!
b110 3!
b10 -!
b100000 .!
b10000000000000000000000000 /!
b1101011101110110011101011011101 v
#124
0#
07
0%
#126
1#
17
1%
b1000011 Y!
b11111111111111111111111111111111 2!
b110 3!
b10101111 -!
b1000 .!
b111000000000000000000000000 /!
b101 5
b110110 3
b100 4
b1000011 X!
b100 <
b110110 :
b11111111111111111111111111111111 2!
b110 3!
b10 -!
b100000 .!
b10000000000000000000000000 /!
b11111111111111111111111111111111 2!
b110 3!
b10 -!
b100000 .!
b10000000000000000000000000 /!
b1101011101110110011101011101011 v
#128
0#
07
0%
#130
1#
17
1%
b1000100 Y!
b11111111111111111111111111111111 2!
b110 3!
b110110 -!
b1000 .!
b111000000000000000000000000 /!
b11 4
b110 5
b100110 3
b1000100 X!
b100110 :
b11 <
b11111111111111111111111111111111 2!
b110 3!
b10 -!
b100000 .!
b10000000000000000000000000 /!
b11111111111111111111111111111111 2!
b110 3!
b10 -!
b100000 .!
b10000000000000000000000000 /!
b1101011101110110011101011111010 v
#132
0#
07
0%
#134
1#
17
1%
b1000101 Y!
b11111111111111111111111111111111 2!
b110 3!
b100110 -!
b1000 .!
b111000000000000000000000000 /!
b111 5
b10011 3
b10 4
b1000101 X!
b10 <
b10011 :
b11111111111111111111111111111111 2!
b110 3!
b10 -!
b100000 .!
b10000000000000000000000000 /!
b11111111111111111111111111111111 2!
b110 3!
b10 -!
b100000 .!
b10000000000000000000000000 /!
b1101011101110110011101100001010 v
#136
0#
07
0%
#138
1#
17
1%
b1000110 Y!
b11111111111111111111111111111111 2!
b110 3!
b10011 -!
b1000 .!
b111000000000000000000000000 /!
b1 4
b0 5
b10110101 3
b1000110 X!
b10110101 :
b1 <
b11111111111111111111111111111111 2!
b110 3!
b10 -!
b100000 .!
b10000000000000000000000000 /!
b11111111111111111111111111111111 2!
b110 3!
b10 -!
b100000 .!
b10000000000000000000000000 /!
b1101011101110110011101100011011 v
#140
0#
07
0%
#142
1#
17
1%
b1000111 Y!
b11111111111111111111111111111111 2!
b110 3!
b10110101 -!
b1000 .!
b111000000000000000000000000 /!
b1 5
b11110101 3
b0 4
b1000111 X!
b0 <
b11110101 :
1.
1;
b11111111111111111111111111111111 2!
b110 3!
b10 -!
b100000 .!
b10000000000000000000000000 /!
b11111111111111111111111111111111 2!
b110 3!
b10 -!
b100000 .!
b10000000000000000000000000 /!
b11011010010101111011110111101 7!
b1101000110101011000010001001010 8!
b1110001 9!
0:!
b11011010010101111011110111101 v
b10110111101110100001101001011110 7!
b11000111101100100001010110101110 8!
b1101101 9!
0:!
b10110111101110100001101001011110 v
#144
0#
07
0%
#146
1#
17
1%
b1001000 Y!
b11111111111111111111111111111111 2!
b110 3!
b11110101 -!
b1000 .!
b111000000000000000000000000 /!
b1001000 X!
b11111111111111111111111111111111 2!
b110 3!
b10 -!
b100000 .!
b10000000000000000000000000 /!
b11111111111111111111111111111111 2!
b110 3!
b10 -!
b100000 .!
b10000000000000000000000000 /!
b10110111101110100001101001011111 v
1?
0>
b10100110 9
12
00
1,
1+
1(
1&
#148
0#
07
0%
#150
1#
17
1%
b1001001 Y!
b11111111111111111111111111111111 2!
b110 3!
b0 -!
b1000 .!
b111000000000000000000000000 /!
b1 4
b10 6
b1001001 X!
b1 <
0.
0;
b11111111111111111111111111111111 2!
b110 3!
b10 -!
b100000 .!
b10000000000000000000000000 /!
b11111111111111111111111111111111 2!
b110 3!
b10 -!
b100000 .!
b10000000000000000000000000 /!
b10110111101110100001101001100001 v
0?
1>
b0 9
02
10
0,
0+
0(
0&
#152
0#
07
0%
